\beamer@sectionintoc {1}{Einleitung}{3}{0}{1}
\beamer@sectionintoc {2}{Unterstützte Geräte}{7}{0}{2}
\beamer@subsubsectionintoc {2}{0}{1}{Support Zeitraum}{8}{0}{2}
\beamer@sectionintoc {3}{Installation}{10}{0}{3}
\beamer@sectionintoc {4}{Features}{12}{0}{4}
\beamer@sectionintoc {5}{Apps}{18}{0}{5}
